Is parking the bus worth it?
…
{{% tweet 912944800730624000 %}}
Now, to me, it is a mathematical certainty that lower-scoring games are more random, and thus better for the underdog. Conversely, higher-scoring games are better for the favorites, who are more assured of winning as more goals lead to less random outcomes.

It is a pretty simple point, and it squares with the general perceptions people have about the football. Big teams play more defensive setups when playing against other big teams. Games against defensive-minded minnows like Burnley are feared more than those against attack-minded sides like Bournemouth. Most people who watch football intuitively feel like a team has got to defend when playing against a better team.

Most, but not all.

As every other claim made about football, this one also draws its fair share of resistance and pushback. People dont always believe it, and they try to back their case up with data. Frequently, a lack of mathematical and statistical knowledge leads to mishandling of data, especially in football where we are dealing with small amounts of count data.

So I decided to show, using real data, how it is better for relegation contenders to be defensive and for title contenders to be attacking. I hope this empirical exercise will convince people that it really is an underlying mathematical feature we are dealing with here, even if they cant fully understand the mathematics that go into it.

Our dataset contains 15 Premier League seasons, with points and goals.

## # A tibble: 300 x 5
##                 team  season points goals_for goals_against
##                <chr>   <chr>  <dbl>     <dbl>         <dbl>
##  1 Manchester United 2002/03     83        74            34
##  2           Arsenal 2002/03     78        85            42
##  3  Newcastle United 2002/03     69        63            48
##  4           Chelsea 2002/03     67        68            38
##  5         Liverpool 2002/03     64        61            41
##  6  Blackburn Rovers 2002/03     60        52            43
##  7           Everton 2002/03     59        48            49
##  8       Southampton 2002/03     52        43            46
##  9   Manchester City 2002/03     51        47            54
## 10 Tottenham Hotspur 2002/03     50        51            62
## # ... with 290 more rows
…
    # Now that we have normalized attack and defense ratings, we can compute
    # measures of quality and attacking balance
    
    quality = norm_attack + norm_defense,
    balance = norm_attack - norm_defense
  )

We now have two metrics, quality and balance, that capture how good and how attacking a team is, respectively. Incidentally, quality is exactly the log of the goal ratio, a metric that is familiar to football fans. balance is its lesser-kown sibling, that we can christen as goal product as it should map directly onto the product of the goals scored and the goals conceded.

These are the most attacking teams in the past 15 seasons:

## # A tibble: 300 x 6
##                    team  season points goals_for goals_against   balance
##                   <chr>   <chr>  <dbl>     <dbl>         <dbl>     <dbl>
##  1            Liverpool 2013/14     84       101            50 0.6808220
##  2            Blackpool 2010/11     39        55            78 0.5177205
##  3    Tottenham Hotspur 2007/08     46        66            61 0.4542071
##  4 West Bromwich Albion 2010/11     47        56            71 0.4417101
##  5      Manchester City 2013/14     86       102            37 0.3895692
##  6     Blackburn Rovers 2011/12     31        48            78 0.3815883
##  7    Manchester United 2012/13     89        86            43 0.3692259
##  8      AFC Bournemouth 2016/17     46        55            67 0.3657043
##  9              Arsenal 2011/12     70        74            49 0.3495639
## 10          Aston Villa 2007/08     60        71            51 0.3481840
## # ... with 290 more rows

And these are the most defensive:

## # A tibble: 300 x 6
##                 team  season points goals_for goals_against    balance
##                <chr>   <chr>  <dbl>     <dbl>         <dbl>      <dbl>
##  1           Chelsea 2004/05     95        72            15 -0.8616052
##  2   Manchester City 2006/07     42        29            44 -0.6948360
##  3            Fulham 2008/09     53        39            34 -0.6563993
##  4        Sunderland 2002/03     19        21            65 -0.6274118
##  5  Blackburn Rovers 2004/05     42        32            43 -0.6193855
##  6   Birmingham City 2005/06     34        28            50 -0.6020940
##  7         Liverpool 2005/06     82        57            25 -0.5843944
##  8     Middlesbrough 2016/17     28        27            53 -0.5801927
##  9           Burnley 2014/15     33        28            53 -0.5438251
## 10 Manchester United 2004/05     77        58            26 -0.5277820
## # ... with 290 more rows
…
